^C:\USERS\JOHN\DESKTOP\CONSOLEAPPLICATION1444444\CONSOLEAPPLICATION1444444\X64\DEBUG\CONSOLEAPPLICATION1444444.OBJ
C:\USERS\JOHN\DESKTOP\CONSOLEAPPLICATION1444444\X64\DEBUG\CONSOLEAPPLICATION1444444.EXE
C:\USERS\JOHN\DESKTOP\CONSOLEAPPLICATION1444444\CONSOLEAPPLICATION1444444\X64\DEBUG\CONSOLEAPPLICATION1444444.ILK
C:\USERS\JOHN\DESKTOP\CONSOLEAPPLICATION1444444\X64\DEBUG\CONSOLEAPPLICATION1444444.PDB
